{
  "project_info": {
    "project_number": "855364140677",
    "firebase_url": "https://barcodescanner-1604522732327.firebaseio.com",
    "project_id": "barcodescanner-1604522732327",
    "storage_bucket": "barcodescanner-1604522732327.appspot.com"
  },
  "client": [
    {
      "client_info": {
        "mobilesdk_app_id": "1:855364140677:android:1096b76311b4c04f36f3ec",
        "android_client_info": {
          "package_name": "com.app.barcodeclient3"
        }
      },
      "oauth_client": [
        {
          "client_id": "855364140677-02ddlfrn90tn9g7ag7kfbdut07fguhar.apps.googleusercontent.com",
          "client_type": 3
        }
      ],
      "api_key": [
        {
          "current_key": "AIzaSyCO7LZaOhh_B6syyEWtFCtl18ZxYgxS_9s"
        }
      ],
      "services": {
        "appinvite_service": {
          "other_platform_oauth_client": [
            {
              "client_id": "855364140677-02ddlfrn90tn9g7ag7kfbdut07fguhar.apps.googleusercontent.com",
              "client_type": 3
            }
          ]
        }
      }
    }
  ],
  "configuration_version": "1"
}